1%,0:16.98,41808
1%,0:18.43,41880
1%,0:17.22,41928
1%,0:17.42,41600
1%,0:18.32,43988
1%,0:16.97,41812
1%,0:17.36,43804
1%,0:17.13,44008
1%,0:17.99,41924
1%,0:16.82,43796
1%,0:18.46,43920
1%,0:16.93,42084
1%,0:17.63,43976
1%,0:17.27,41956
1%,0:16.69,42072
1%,0:16.69,42072
1%,0:16.97,41812
1%,0:17.90,43856
1%,0:17.21,43936
1%,0:17.90,43856
